<?xml version="1.0" encoding="utf-8"?>
<!-- Generator: Adobe Illustrator 23.0.6, SVG Export Plug-In . SVG Version: 6.00 Build 0)  -->
<svg version="1.1" id="Ebene_1" xmlns="http://www.w3.org/2000/svg" xmlns:xlink="http://www.w3.org/1999/xlink" x="0px" y="0px"
	 viewBox="0 0 15 10.5" style="enable-background:new 0 0 15 10.5;" xml:space="preserve">
<style type="text/css">
	.st0{clip-path:url(#SVGID_2_);fill:#00DCFF;}
</style>
<g>
	<defs>
		<rect id="SVGID_1_" width="15" height="10.5"/>
	</defs>
	<clipPath id="SVGID_2_">
		<use xlink:href="#SVGID_1_"  style="overflow:visible;"/>
	</clipPath>
	<path class="st0" d="M14.1,9.1l-3.8-3.8l3.8-3.8V9.1z M1.5,9.7l3.8-3.8l1.3,1.3c0.5,0.5,1.4,0.5,1.9,0l1.3-1.3l3.8,3.8H1.5z
		 M0.9,9.1V1.5l3.8,3.8L0.9,9.1z M13.5,0.9C13.1,1.3,8,6.3,7.8,6.5c-0.2,0.2-0.5,0.2-0.7,0L1.5,0.9H13.5z M13.7,0H1.3
		C0.6,0,0,0.6,0,1.3v7.9c0,0.7,0.6,1.3,1.3,1.3h12.4c0.7,0,1.3-0.6,1.3-1.3V1.3C15,0.6,14.4,0,13.7,0"/>
</g>
</svg>
